…
```julia
julia> test()
1001×5 DataFrame
  Row │ time     p                           state                       linear                             input
      │ Float64  Array…                      Array…                      Dict…                              Array…
──────┼────────────────────────────────────────────────────────────────────────────────────────────────────────────────────
    1 │    0.0   [1.01978, 1.95564]          [1.0, 2.0]                  Dict{Any, Any}(:state_square=>[1…  [-4.4641]
    2 │    0.01  [1.01978, 1.95564]          [1.01978, 1.95564]          Dict{Any, Any}(:state_square=>[1…  [-4.40705]
    3 │    0.02  [1.03911, 1.91186]          [1.03911, 1.91186]          Dict{Any, Any}(:state_square=>[1…  [-4.35055]
    4 │    0.03  [1.05802, 1.86863]          [1.05802, 1.86863]          Dict{Any, Any}(:state_square=>[1…  [-4.29458]
    5 │    0.04  [1.07649, 1.82596]          [1.07649, 1.82596]          Dict{Any, Any}(:state_square=>[1…  [-4.23915]
    6 │    0.05  [1.09454, 1.78385]          [1.09454, 1.78385]          Dict{Any, Any}(:state_square=>[1…  [-4.18425]
    7 │    0.06  [1.11217, 1.74228]          [1.11217, 1.74228]          Dict{Any, Any}(:state_square=>[1…  [-4.12988]
    8 │    0.07  [1.12939, 1.70125]          [1.12939, 1.70125]          Dict{Any, Any}(:state_square=>[1…  [-4.07603]
    9 │    0.08  [1.14619, 1.66075]          [1.14619, 1.66075]          Dict{Any, Any}(:state_square=>[1…  [-4.02271]
   10 │    0.09  [1.1626, 1.62079]           [1.1626, 1.62079]           Dict{Any, Any}(:state_square=>[1…  [-3.9699]
   11 │    0.1   [1.17861, 1.58135]          [1.17861, 1.58135]          Dict{Any, Any}(:state_square=>[1…  [-3.9176]
   12 │    0.11  [1.19423, 1.54244]          [1.19423, 1.54244]          Dict{Any, Any}(:state_square=>[1…  [-3.86581]
   13 │    0.12  [1.20946, 1.50404]          [1.20946, 1.50404]          Dict{Any, Any}(:state_square=>[1…  [-3.81453]
   14 │    0.13  [1.22431, 1.46615]          [1.22431, 1.46615]          Dict{Any, Any}(:state_square=>[1…  [-3.76375]
   15 │    0.14  [1.23879, 1.42876]          [1.23879, 1.42876]          Dict{Any, Any}(:state_square=>[1…  [-3.71347]
   16 │    0.15  [1.25289, 1.39187]          [1.25289, 1.39187]          Dict{Any, Any}(:state_square=>[1…  [-3.66369]
   17 │    0.16  [1.26663, 1.35548]          [1.26663, 1.35548]          Dict{Any, Any}(:state_square=>[1…  [-3.6144]
   18 │    0.17  [1.28, 1.31959]             [1.28, 1.31959]             Dict{Any, Any}(:state_square=>[1…  [-3.56559]
   19 │    0.18  [1.29302, 1.28417]          [1.29302, 1.28417]          Dict{Any, Any}(:state_square=>[1…  [-3.51727]
   20 │    0.19  [1.30569, 1.24924]          [1.30569, 1.24924]          Dict{Any, Any}(:state_square=>[1…  [-3.46943]
   21 │    0.2   [1.31801, 1.21478]          [1.31801, 1.21478]          Dict{Any, Any}(:state_square=>[1…  [-3.42207]
   22 │    0.21  [1.32998, 1.1808]           [1.32998, 1.1808]           Dict{Any, Any}(:state_square=>[1…  [-3.37518]
   23 │    0.22  [1.34162, 1.14728]          [1.34162, 1.14728]          Dict{Any, Any}(:state_square=>[1…  [-3.32876]
  ⋮   │    ⋮                 ⋮                           ⋮                               ⋮                        ⋮
  979 │    9.78  [-0.00114617, 0.00120202]   [-0.00114617, 0.00120202]   Dict{Any, Any}(:state_square=>[1…  [-0.00093579]
  980 │    9.79  [-0.0011342, 0.00119268]    [-0.0011342, 0.00119268]    Dict{Any, Any}(:state_square=>[1…  [-0.000931591]
  981 │    9.8   [-0.00112232, 0.00118339]   [-0.00112232, 0.00118339]   Dict{Any, Any}(:state_square=>[1…  [-0.000927372]
  982 │    9.81  [-0.00111053, 0.00117414]   [-0.00111053, 0.00117414]   Dict{Any, Any}(:state_square=>[1…  [-0.000923134]
  983 │    9.82  [-0.00109883, 0.00116493]   [-0.00109883, 0.00116493]   Dict{Any, Any}(:state_square=>[1…  [-0.000918877]
  984 │    9.83  [-0.00108723, 0.00115576]   [-0.00108723, 0.00115576]   Dict{Any, Any}(:state_square=>[1…  [-0.000914602]
  985 │    9.84  [-0.00107572, 0.00114663]   [-0.00107572, 0.00114663]   Dict{Any, Any}(:state_square=>[1…  [-0.00091031]
  986 │    9.85  [-0.0010643, 0.00113755]    [-0.0010643, 0.00113755]    Dict{Any, Any}(:state_square=>[1…  [-0.000906001]
  987 │    9.86  [-0.00105297, 0.00112851]   [-0.00105297, 0.00112851]   Dict{Any, Any}(:state_square=>[1…  [-0.000901676]
  988 │    9.87  [-0.00104173, 0.00111952]   [-0.00104173, 0.00111952]   Dict{Any, Any}(:state_square=>[1…  [-0.000897337]
  989 │    9.88  [-0.00103058, 0.00111057]   [-0.00103058, 0.00111057]   Dict{Any, Any}(:state_square=>[1…  [-0.000892982]
  990 │    9.89  [-0.00101952, 0.00110166]   [-0.00101952, 0.00110166]   Dict{Any, Any}(:state_square=>[1…  [-0.000888614]
  991 │    9.9   [-0.00100854, 0.0010928]    [-0.00100854, 0.0010928]    Dict{Any, Any}(:state_square=>[1…  [-0.000884233]
  992 │    9.91  [-0.000997661, 0.00108398]  [-0.000997661, 0.00108398]  Dict{Any, Any}(:state_square=>[9…  [-0.00087984]
  993 │    9.92  [-0.000986865, 0.0010752]   [-0.000986865, 0.0010752]   Dict{Any, Any}(:state_square=>[9…  [-0.000875434]
  994 │    9.93  [-0.000976157, 0.00106647]  [-0.000976157, 0.00106647]  Dict{Any, Any}(:state_square=>[9…  [-0.000871018]
  995 │    9.94  [-0.000965535, 0.00105778]  [-0.000965535, 0.00105778]  Dict{Any, Any}(:state_square=>[9…  [-0.000866591]
  996 │    9.95  [-0.000955001, 0.00104913]  [-0.000955001, 0.00104913]  Dict{Any, Any}(:state_square=>[9…  [-0.000862154]
  997 │    9.96  [-0.000944553, 0.00104054]  [-0.000944553, 0.00104054]  Dict{Any, Any}(:state_square=>[8…  [-0.000857708]
  998 │    9.97  [-0.00093419, 0.00103198]   [-0.00093419, 0.00103198]   Dict{Any, Any}(:state_square=>[8…  [-0.000853253]
  999 │    9.98  [-0.000923913, 0.00102347]  [-0.000923913, 0.00102347]  Dict{Any, Any}(:state_square=>[8…  [-0.00084879]
 1000 │    9.99  [-0.00091372, 0.001015]     [-0.00091372, 0.001015]     Dict{Any, Any}(:state_square=>[8…  [-0.00084432]
 1001 │   10.0   [-0.00091372, 0.001015]     [-0.000903612, 0.00100658]  Dict{Any, Any}(:state_square=>[8…  [-0.000839842]
                                                                                                           955 rows omitted
```
…
